# Set OID counter to 999,999
# Increment subscript "pg_class" to above 999,999
DROP TABLE
DROP TABLE

CREATE TABLE names (id INTEGER PRIMARY KEY, firstName VARCHAR(30), lastName VARCHAR(30)) GLOBAL "^names";

CREATE TABLE namesWithAges (
 id INTEGER PRIMARY KEY,
 firstName VARCHAR(30),
 lastName VARCHAR(30),
 age INTEGER,
 datetime TIME(10) EXTRACT "$ZDATE($HOROLOG,""YEAR-MM-DD 24:60:SS"")"	-- this is a computed column
)
 GLOBAL "^names";
CREATE TABLE
CREATE TABLE
DROP TABLE
DROP TABLE

CREATE TABLE names (id INTEGER PRIMARY KEY, firstName VARCHAR(30), lastName VARCHAR(30)) GLOBAL "^names";

CREATE TABLE namesWithAges (
 id INTEGER PRIMARY KEY,
 firstName VARCHAR(30),
 lastName VARCHAR(30),
 age INTEGER,
 datetime TIME(10) EXTRACT "$ZDATE($HOROLOG,""YEAR-MM-DD 24:60:SS"")"	-- this is a computed column
)
 GLOBAL "^names";
CREATE TABLE
CREATE TABLE
# Verify Increment
1000010
# Run select query twice. The second one fails with assert without the fix.
id|firstname|lastname
0|Zero|Cool
1|Acid|Burn
2|Cereal|Killer
3|Lord|Nikon
4|Joey|
5|Zero|Cool
(6 rows)
id|firstname|lastname
0|Zero|Cool
1|Acid|Burn
2|Cereal|Killer
3|Lord|Nikon
4|Joey|
5|Zero|Cool
(6 rows)
