
-- TC065 : OCTO633 : String literals in EXTRACT SQL function calls can contain only a double-quote character

drop table if exists tmp;
CREATE TABLE tmp (id INTEGER PRIMARY KEY, firstName VARCHAR(30), lastName TEXT(30), namequote varchar extract concat (firstname, '"')) GLOBAL "^names";
select * from tmp;
DROP TABLE
CREATE TABLE
id|firstname|lastname|namequote
0|Zero|Cool|Zero"
1|Acid|Burn|Acid"
2|Cereal|Killer|Cereal"
3|Lord|Nikon|Lord"
4|Joey||Joey"
5|Zero|Cool|Zero"
(6 rows)
