
-- TCF034 : OCTO884 : Octo supports SQL keywords and parenless function names in CREATE/DROP FUNCTION statements

-- Can create/drop functions with names of SQL keywords
DROP FUNCTION TRUNCATE(INTEGER, INTEGER);
CREATE FUNCTION IF NOT EXISTS TRUNCATE(INTEGER, INTEGER) RETURNS NUMERIC AS $$^%ydboctofTRUNCATE;
SELECT TRUNCATE(1, 1);

DROP FUNCTION IF EXISTS TRUNCATE(INTEGER, INTEGER);
CREATE FUNCTION TRUNCATE(INTEGER, INTEGER) RETURNS NUMERIC AS $$^%ydboctofTRUNCATE;
SELECT TRUNCATE(1, 1);

-- Can create/drop parenless functions
DROP FUNCTION current_user;
CREATE FUNCTION IF NOT EXISTS current_user() RETURNS VARCHAR AS $$pgUser^%ydboctopgfunctions;
select current_user;

DROP FUNCTION IF EXISTS current_user;
CREATE FUNCTION current_user() RETURNS VARCHAR AS $$pgUser^%ydboctopgfunctions;
select current_user;
DROP FUNCTION
CREATE FUNCTION
truncate
1.0
(1 row)
DROP FUNCTION
CREATE FUNCTION
truncate
1.0
(1 row)
DROP FUNCTION
CREATE FUNCTION
current_user

(1 row)
DROP FUNCTION
CREATE FUNCTION
current_user

(1 row)
