
-- TCF006 : OCTO345 : M intrinsic functions created by CREATE FUNCTION are case sensitive" {

-- Map function to intrinsic function (all caps)
CREATE FUNCTION DOLLARZWRITE(VARCHAR) RETURNS VARCHAR AS $ZWRITE;
select DOLLARZWRITE(firstname) from names;
DROP FUNCTION DOLLARZWRITE(VARCHAR);

-- Map function to intrinsic function (lowercase)
CREATE FUNCTION DOLLARZWRITE(VARCHAR) RETURNS VARCHAR AS $zwrite;
select DOLLARZWRITE(firstname) from names;
DROP FUNCTION DOLLARZWRITE(VARCHAR);

-- Map function to intrinsic function (mixed case)
CREATE FUNCTION DOLLARZWRITE(VARCHAR) RETURNS VARCHAR AS $zWrItE;
select DOLLARZWRITE(firstname) from names;
DROP FUNCTION DOLLARZWRITE(VARCHAR);

CREATE FUNCTION
dollarzwrite
"Zero"
"Acid"
"Cereal"
"Lord"
"Joey"
"Zero"
(6 rows)
DROP FUNCTION
CREATE FUNCTION
dollarzwrite
"Zero"
"Acid"
"Cereal"
"Lord"
"Joey"
"Zero"
(6 rows)
DROP FUNCTION
CREATE FUNCTION
dollarzwrite
"Zero"
"Acid"
"Cereal"
"Lord"
"Joey"
"Zero"
(6 rows)
DROP FUNCTION
