
-- TDF001 : OCTO345 : DROP FUNCTION works with new function

CREATE FUNCTION DOLLARZWRITE(VARCHAR) RETURNS VARCHAR AS $ZWRITE;
select DOLLARZWRITE(firstname) from names;
DROP FUNCTION DOLLARZWRITE (VARCHAR);
select DOLLARZWRITE(firstname) from names;

CREATE FUNCTION
dollarzwrite
"Zero"
"Acid"
"Cereal"
"Lord"
"Joey"
"Zero"
(6 rows)
DROP FUNCTION
[ERROR]: ERR_UNKNOWN_FUNCTION: No function dollarzwrite defined with given parameter types (VARCHAR)
LINE 6:1: select DOLLARZWRITE(firstname) from names;
                 ^^^^^^^^^^^^
Remaining function definitions (hashes):
Successfully deleted function "dollarzwrite" from pg_catalog.pg_proc
