
-- All queries in this query file are invalid queries and generate an error.

-- TEO02 : OCTO496 : EXISTS on a sub query that has UNION operations fails assertions

SELECT EXISTS (SELECT 1,2 UNION SELECT 3);

[ERROR] PATH:LINENUM DATE TIME: ERR_SETOPER_NUMCOLS_MISMATCH: Each UNION query must have same number of columns
LINE 4:1: SELECT EXISTS (SELECT 1,2 UNION SELECT 3);
                                  ^
