
-- TII02 : INSERT INTO a xfer table

CREATE TABLE namesLastNameXref (
  lastName VARCHAR(30),
  id INTEGER,
  PRIMARY KEY (lastName, id)
);
INSERT INTO namesLastNameXref (SELECT lastName, id FROM NAMES WHERE lastName IS NOT NULL);
SELECT * FROM namesLastNameXref;
DROP TABLE namesLastNameXref;

CREATE TABLE
INSERT 0 5
lastname|id
Burn|1
Cool|0
Cool|5
Killer|2
Nikon|3
(5 rows)
DROP TABLE
