
-- Octo only supports numbers with a precision of up to 18 significant digits.
SELECT ROUND(1.01234567890123456789012345, 20);
-- Octo does not enforce that arguments are integers and not floats.
-- Instead, YDB will coerce the second argument to an integer by truncating.
SELECT ROUND(155, 1.5);
SELECT ROUND(155, -1.5);
-- Numeric overflow
SELECT ROUND(155, -47);
round
1.01234567890123456000
(1 row)
[ERROR]: ERR_UNKNOWN_FUNCTION: No function round defined with given parameter types (INTEGER, NUMERIC)
LINE 3:1: SELECT ROUND(155, 1.5);
                 ^^^^^
[ERROR]: ERR_UNKNOWN_FUNCTION: No function round defined with given parameter types (INTEGER, NUMERIC)
LINE 4:1: SELECT ROUND(155, -1.5);
                 ^^^^^
[ERROR]: ERR_YOTTADB: YottaDB error: 150373506,ROUND+6^%ydboctosqlfunctions,%YDB-E-NUMOFLOW, Numeric overflow
