
select count(n1.id),n1.* from ((select 1 as id, 'test' as name) union (select 2 as id, 'test' as name)) as n1 group by n1.id;
select count(n1.*) from ((select 1 as id, 'test' as name) union (select 2 as id, 'test' as name)) as n1 group by count(n1.*);

-- Invalid aggregate function usage
select SUM(n1.*) from customers n1;
select MIN(n1.*) from customers n1;
select MAX(n1.*) from customers n1;
select AVG(n1.*) from customers n1;

-- Type mismatch
select n1.* = n1.firstname from names n1;
select count(n1.*) from ((select 1 as id, 'test' as name) union (select 2 as id, 'test' as name)) as n1 group by n1.* having (n1.* > 1);
select count(n1.*) from ((select 1 as id, 'test' as name) union (select 2 as id, 'test' as name)) as n1 group by n1.* having (n1.*);

-- Invalid subquery usage
select (select names.*) from names;

-- Missing FROM-clause entry
select firstname from names n1 group by names.*;
select n1.* from names n2;
select firstname from names group by n2.*;
select count(n2.*) from names;
select firstname from names order by n1.*;
select firstname from names order by count(n1.*);
select firstname from names having count(n1.*);
select firstname from names having n1.*;

-- Following query verifies that similar tablenames are not mistaken to be same
select count(DISTINCT n1.*) from names n11;

-- Invalid column correlation specification
select a,b,c from (select n1.* from names n1) as abcd(a,b,c,d);
[ERROR]: ERR_GROUP_BY_OR_AGGREGATE_FUNCTION: Column 'name' must appear in the GROUP BY clause or be used in an aggregate function
[ERROR]: ERR_GROUP_BY_INVALID_USAGE: Invalid GROUP BY. Only column number, column name and expressions are valid in GROUP BY (not constants or references to subqueries or aggregate function)
LINE 3:1: ...n (select 2 as id, 'test' as name)) as n1 group by count(n1.*);
                                                                ^^^^^^^^^^^
[ERROR]: ERR_MISTYPED_FUNCTION_TABLE_ASTERISK: Function sum cannot be invoked with a parameter of type TABLENAME.*
LINE 5:1: select SUM(n1.*) from customers n1;
                 ^^^
[ERROR]: ERR_MISTYPED_FUNCTION_TABLE_ASTERISK: Function min cannot be invoked with a parameter of type TABLENAME.*
LINE 6:1: select MIN(n1.*) from customers n1;
                 ^^^
[ERROR]: ERR_MISTYPED_FUNCTION_TABLE_ASTERISK: Function max cannot be invoked with a parameter of type TABLENAME.*
LINE 7:1: select MAX(n1.*) from customers n1;
                 ^^^
[ERROR]: ERR_MISTYPED_FUNCTION_TABLE_ASTERISK: Function avg cannot be invoked with a parameter of type TABLENAME.*
LINE 8:1: select AVG(n1.*) from customers n1;
                 ^^^
[ERROR]: ERR_TABLE_ASTERISK_SCALAR_COMPARISON: Table asterisk cannot be compared against column reference
LINE 10:1: select n1.* = n1.firstname from names n1;
                  ^^
LINE 10:1: select n1.* = n1.firstname from names n1;
                         ^^^^^^^^^^^^
[ERROR]: ERR_TYPE_MISMATCH: Type mismatch: left TABLENAME.*, right INTEGER
LINE 11:1: ...2 as id, 'test' as name)) as n1 group by n1.* having (n1.* > 1);
                                                                    ^^
LINE 11:1: ... as id, 'test' as name)) as n1 group by n1.* having (n1.* > 1);
                                                                          ^
[ERROR]: ERR_TYPE_NOT_COMPATIBLE: Type TABLENAME.* not compatible for boolean operations
LINE 12:1: ...ect 2 as id, 'test' as name)) as n1 group by n1.* having (n1.*);
                                                                       ^^^^^^
[ERROR]: ERR_SUBQUERY_ONE_COLUMN: Subquery must return only one column
LINE 14:1: select (select names.*) from names;
                  ^^^^^^^^^^^^^^^^
[ERROR]: ERR_MISSING_FROM_ENTRY: Missing FROM-clause entry for table : names
LINE 16:1: select firstname from names n1 group by names.*;
                                                   ^^^^^^^
[ERROR]: ERR_MISSING_FROM_ENTRY: Missing FROM-clause entry for table : n1
LINE 17:1: select n1.* from names n2;
                  ^^^^
[ERROR]: ERR_MISSING_FROM_ENTRY: Missing FROM-clause entry for table : n2
LINE 18:1: select firstname from names group by n2.*;
                                                ^^^^
[ERROR]: ERR_MISSING_FROM_ENTRY: Missing FROM-clause entry for table : n2
LINE 19:1: select count(n2.*) from names;
                        ^^^^
[ERROR]: ERR_MISSING_FROM_ENTRY: Missing FROM-clause entry for table : n1
LINE 20:1: select firstname from names order by n1.*;
                                                ^^^^
[ERROR]: ERR_MISSING_FROM_ENTRY: Missing FROM-clause entry for table : n1
LINE 21:1: select firstname from names order by count(n1.*);
                                                      ^^^^
[ERROR]: ERR_MISSING_FROM_ENTRY: Missing FROM-clause entry for table : n1
LINE 22:1: select firstname from names having count(n1.*);
                                                    ^^^^
[ERROR]: ERR_MISSING_FROM_ENTRY: Missing FROM-clause entry for table : n1
LINE 23:1: select firstname from names having n1.*;
                                              ^^^^
[ERROR]: ERR_MISSING_FROM_ENTRY: Missing FROM-clause entry for table : n1
LINE 25:1: select count(DISTINCT n1.*) from names n11;
                                 ^^^^
[ERROR]: ERR_AS_MORE_COLUMNS: Table name "abcd" has 3 columns available but 4 columns specified
LINE 27:1: select a,b,c from (select n1.* from names n1) as abcd(a,b,c,d);
                                                            ^^^^
