
-- TSO08 : UNION of tables with different numbers of keys

SELECT t1.id, t1.firstName, t1.lastName FROM names t1 INNER JOIN (SELECT * FROM names) t2 ON t1.id = t2.id
UNION ALL
SELECT * FROM names t1;

id|firstname|lastname
0|Zero|Cool
1|Acid|Burn
2|Cereal|Killer
3|Lord|Nikon
4|Joey|
5|Zero|Cool
0|Zero|Cool
1|Acid|Burn
2|Cereal|Killer
3|Lord|Nikon
4|Joey|
5|Zero|Cool
(12 rows)
