
-- TWI07 : WHERE in sub-query only references ONE parent query column AND a CONSTANT (variant of T0013)

SELECT *
FROM names n1
WHERE n1.firstName IN (SELECT n2.firstName
  FROM names n2
  WHERE n1.firstName = 'Acid'
);

id|firstname|lastname
1|Acid|Burn
(1 row)
;; This is a generated file; do not modify. Generated M code corresponds to below SQL query
;; ---------------------------------------------------------
;  SELECT *
;  FROM names n1
;  WHERE n1.firstName IN (SELECT n2.firstName
;    FROM names n2
;    WHERE n1.firstName = 'Acid'
;  );
;; ---------------------------------------------------------

octoPlan0(cursorId,wrapInTp)
    NEW %ydboctop,%ydboctoexpr
    TSTART:wrapInTp ():(serial)
    DO octoPlan1(cursorId)
    TCOMMIT:wrapInTp
    QUIT

octoPlan1(cursorId)
    NEW %ydboctoz,%ydboctoexpr KILL %ydboctocursor(cursorId,"keys",6,"","")
    SET %ydboctocursor(cursorId,"keys",1,"names","id")=""
    FOR  SET %ydboctocursor(cursorId,"keys",1,"names","id")=$ORDER(^names(%ydboctocursor(cursorId,"keys",1,"names","id"))) QUIT:(%ydboctocursor(cursorId,"keys",1,"names","id")="")  DO
    . SET %ydboctoexpr=1
    . SET %ydboctoexpr=$PIECE($GET(^names(%ydboctocursor(cursorId,"keys",1,"names","id"))),"|",1) SET:(""=%ydboctoexpr) %ydboctoexpr=$ZYSQLNULL
    . SET %ydboctoexpr(1)=%ydboctoexpr
    . SET %ydboctoexpr=$SELECT($ZYISSQLNULL(%ydboctoexpr(1)):$ZYSQLNULL,$$InvokeOctoPlan^%ydboctoplanhelpers("octoPlan2,"):0,$DATA(%ydboctocursor(cursorId,"keys",5,"","",%ydboctoexpr(1))):1,$DATA(%ydboctocursor(cursorId,"keys",5,"","",$ZYSQLNULL)):$ZYSQLNULL,1:0)
    . DO:%ydboctoexpr
    . . SET:1&$INCREMENT(%ydboctocursor(cursorId,"keys",6,"","")) %ydboctoz=42
    . . SET %ydboctoexpr=%ydboctocursor(cursorId,"keys",1,"names","id")
    . . SET %ydboctoexpr=$$str2mval^%ydboctoplanhelpers(%ydboctoexpr)
    . . SET %ydboctoexpr(0)=%ydboctoexpr
    . . SET %ydboctoexpr=$PIECE($GET(^names(%ydboctocursor(cursorId,"keys",1,"names","id"))),"|",1) SET:(""=%ydboctoexpr) %ydboctoexpr=$ZYSQLNULL
    . . SET %ydboctoexpr=$$str2mval^%ydboctoplanhelpers(%ydboctoexpr)
    . . SET %ydboctoexpr=%ydboctoexpr(0)_%ydboctoexpr
    . . SET %ydboctoexpr(0)=%ydboctoexpr
    . . SET %ydboctoexpr=$PIECE($GET(^names(%ydboctocursor(cursorId,"keys",1,"names","id"))),"|",2) SET:(""=%ydboctoexpr) %ydboctoexpr=$ZYSQLNULL
    . . SET %ydboctoexpr=$$str2mval^%ydboctoplanhelpers(%ydboctoexpr)
    . . SET %ydboctoexpr=%ydboctoexpr(0)_%ydboctoexpr
    . . SET %ydboctocursor(cursorId,"keys",6,"","",%ydboctocursor(cursorId,"keys",6,"",""))=%ydboctoexpr
    ZKILL %ydboctocursor(cursorId,"keys",1,"names","id")
    QUIT

octoPlan2(cursorId)
    NEW %ydboctoz,%ydboctoexpr KILL %ydboctocursor(cursorId,"keys",5,"","")
    SET %ydboctocursor(cursorId,"keys",2,"names","id")=""
    FOR  SET %ydboctocursor(cursorId,"keys",2,"names","id")=$ORDER(^names(%ydboctocursor(cursorId,"keys",2,"names","id"))) QUIT:(%ydboctocursor(cursorId,"keys",2,"names","id")="")  DO
    . SET %ydboctoexpr=1
    . SET %ydboctoexpr=$SELECT('$DATA(%ydboctocursor(cursorId,"keys",1,"names","id")):$ZYSQLNULL,1:$PIECE($GET(^names(%ydboctocursor(cursorId,"keys",1,"names","id"))),"|",1)) SET:(""=%ydboctoexpr) %ydboctoexpr=$ZYSQLNULL
    . SET %ydboctoexpr(1)=%ydboctoexpr
    . SET %ydboctoexpr=$GET(%ydboctocursor(cursorId,"parameters",1))
    . SET %ydboctoexpr=%ydboctoexpr(1)=%ydboctoexpr
    . DO:%ydboctoexpr
    . . SET %ydboctoexpr=$PIECE($GET(^names(%ydboctocursor(cursorId,"keys",2,"names","id"))),"|",1) SET:(""=%ydboctoexpr) %ydboctoexpr=$ZYSQLNULL
    . . IF $INCREMENT(%ydboctocursor(cursorId,"keys",5,"","",%ydboctoexpr))
    ZKILL %ydboctocursor(cursorId,"keys",2,"names","id")
    QUIT
