id|firstname|lastname
2|Cereal|Killer
0|Zero|Cool
5|Zero|Cool
(3 rows)
;; This is a generated file; do not modify. Generated M code corresponds to below SQL query
;; ---------------------------------------------------------
;  select * from names where id = 2 or firstName = 'Zero';
;; ---------------------------------------------------------

octoPlan0(cursorId,wrapInTp)
    DO:'$GET(^%ydbAIMOctoCache("names","firstname","completed?")) xrefPlan^%ydboctoXbbukBmYFvqWyiOgMrJ5B3E(cursorId)
    NEW %ydboctop,%ydboctoexpr
    TSTART:wrapInTp ():(serial)
    DO octoPlan1(cursorId)
    DO octoPlan2(cursorId)
    TCOMMIT:wrapInTp
    QUIT

octoPlan1(cursorId)
    NEW %ydboctoz,%ydboctoexpr KILL %ydboctocursor(cursorId,"keys",3,"","")
    KILL %ydboctozduplicate(3)
    DO
    . SET %ydboctoexpr=$GET(%ydboctocursor(cursorId,"parameters",1))
    SET %ydboctocursor(cursorId,"keys",1,"names","id")=%ydboctoexpr IF '$ZYISSQLNULL(%ydboctocursor(cursorId,"keys",1,"names","id")) IF $DATA(^names(%ydboctocursor(cursorId,"keys",1,"names","id"))) DO
    . DO:'$DATA(%ydboctozduplicate(3,%ydboctocursor(cursorId,"keys",1,"names","id")))
    . . SET %ydboctoexpr=1
    . . DO:%ydboctoexpr
    . . . SET:1&$INCREMENT(%ydboctocursor(cursorId,"keys",3,"","")) %ydboctoz=42
    . . . SET %ydboctoexpr=%ydboctocursor(cursorId,"keys",1,"names","id")
    . . . SET %ydboctoexpr=$$str2mval^%ydboctoplanhelpers(%ydboctoexpr)
    . . . SET %ydboctoexpr(0)=%ydboctoexpr
    . . . SET %ydboctoexpr=$PIECE($GET(^names(%ydboctocursor(cursorId,"keys",1,"names","id"))),"|",1) SET:(""=%ydboctoexpr) %ydboctoexpr=$ZYSQLNULL
    . . . SET %ydboctoexpr=$$str2mval^%ydboctoplanhelpers(%ydboctoexpr)
    . . . SET %ydboctoexpr=%ydboctoexpr(0)_%ydboctoexpr
    . . . SET %ydboctoexpr(0)=%ydboctoexpr
    . . . SET %ydboctoexpr=$PIECE($GET(^names(%ydboctocursor(cursorId,"keys",1,"names","id"))),"|",2) SET:(""=%ydboctoexpr) %ydboctoexpr=$ZYSQLNULL
    . . . SET %ydboctoexpr=$$str2mval^%ydboctoplanhelpers(%ydboctoexpr)
    . . . SET %ydboctoexpr=%ydboctoexpr(0)_%ydboctoexpr
    . . . SET %ydboctocursor(cursorId,"keys",3,"","",%ydboctocursor(cursorId,"keys",3,"",""))=%ydboctoexpr
    . . . SET %ydboctozduplicate(3,%ydboctocursor(cursorId,"keys",1,"names","id"))=""
    ZKILL %ydboctocursor(cursorId,"keys",1,"names","id")
    QUIT

octoPlan2(cursorId)
    NEW %ydboctoz,%ydboctoexpr
    DO
    . SET %ydboctoexpr=$GET(%ydboctocursor(cursorId,"parameters",2))
    SET %ydboctocursor(cursorId,"keys",1,"names","firstname")=%ydboctoexpr IF '$ZYISSQLNULL(%ydboctocursor(cursorId,"keys",1,"names","firstname")) IF $DATA(^%ydbAIMDXtoXI8zgdGIqUuCoYeqwF6(1,%ydboctocursor(cursorId,"keys",1,"names","firstname"))) DO
    . SET %ydboctocursor(cursorId,"keys",1,"names","id")=""
    . FOR  SET %ydboctocursor(cursorId,"keys",1,"names","id")=$ORDER(^%ydbAIMDXtoXI8zgdGIqUuCoYeqwF6(1,%ydboctocursor(cursorId,"keys",1,"names","firstname"),%ydboctocursor(cursorId,"keys",1,"names","id"))) QUIT:(%ydboctocursor(cursorId,"keys",1,"names","id")="")  DO
    . . DO:'$DATA(%ydboctozduplicate(3,%ydboctocursor(cursorId,"keys",1,"names","id")))
    . . . SET %ydboctoexpr=1
    . . . DO:%ydboctoexpr
    . . . . SET:1&$INCREMENT(%ydboctocursor(cursorId,"keys",3,"","")) %ydboctoz=42
    . . . . SET %ydboctoexpr=%ydboctocursor(cursorId,"keys",1,"names","id")
    . . . . SET %ydboctoexpr=$$str2mval^%ydboctoplanhelpers(%ydboctoexpr)
    . . . . SET %ydboctoexpr(0)=%ydboctoexpr
    . . . . SET %ydboctoexpr=%ydboctocursor(cursorId,"keys",1,"names","firstname")
    . . . . SET %ydboctoexpr=$$str2mval^%ydboctoplanhelpers(%ydboctoexpr)
    . . . . SET %ydboctoexpr=%ydboctoexpr(0)_%ydboctoexpr
    . . . . SET %ydboctoexpr(0)=%ydboctoexpr
    . . . . SET %ydboctoexpr=$PIECE($GET(^names(%ydboctocursor(cursorId,"keys",1,"names","id"))),"|",2) SET:(""=%ydboctoexpr) %ydboctoexpr=$ZYSQLNULL
    . . . . SET %ydboctoexpr=$$str2mval^%ydboctoplanhelpers(%ydboctoexpr)
    . . . . SET %ydboctoexpr=%ydboctoexpr(0)_%ydboctoexpr
    . . . . SET %ydboctocursor(cursorId,"keys",3,"","",%ydboctocursor(cursorId,"keys",3,"",""))=%ydboctoexpr
    . . . . SET %ydboctozduplicate(3,%ydboctocursor(cursorId,"keys",1,"names","id"))=""
    ZKILL %ydboctocursor(cursorId,"keys",1,"names","id")
    ZKILL %ydboctocursor(cursorId,"keys",1,"names","firstname")
    QUIT
